com\ait\BookShop\data\BookDAO.class
com\ait\BookShop\rest\JaxRsActivator.class
com\ait\BookShop\rest\BookWS.class
com\ait\BookShop\util\Resources.class
com\ait\BookShop\model\Book.class
com\ait\BookShop\model\Book_.class
